{
  "files": {
    "main.css": "/static/css/main.0836108c.chunk.css",
    "main.js": "/static/js/main.0f7f6598.chunk.js",
    "main.js.map": "/static/js/main.0f7f6598.chunk.js.map",
    "runtime-main.js": "/static/js/runtime-main.e989af01.js",
    "runtime-main.js.map": "/static/js/runtime-main.e989af01.js.map",
    "static/css/2.95258f03.chunk.css": "/static/css/2.95258f03.chunk.css",
    "static/js/2.9449e715.chunk.js": "/static/js/2.9449e715.chunk.js",
    "static/js/2.9449e715.chunk.js.map": "/static/js/2.9449e715.chunk.js.map",
    "index.html": "/index.html",
    "precache-manifest.dd5cf9f44d17ba7d12258589154742ff.js": "/precache-manifest.dd5cf9f44d17ba7d12258589154742ff.js",
    "service-worker.js": "/service-worker.js",
    "static/css/2.95258f03.chunk.css.map": "/static/css/2.95258f03.chunk.css.map",
    "static/css/main.0836108c.chunk.css.map": "/static/css/main.0836108c.chunk.css.map",
    "static/js/2.9449e715.chunk.js.LICENSE.txt": "/static/js/2.9449e715.chunk.js.LICENSE.txt",
    "static/media/default.jpg": "/static/media/default.3ce1556c.jpg"
  },
  "entrypoints": [
    "static/js/runtime-main.e989af01.js",
    "static/css/2.95258f03.chunk.css",
    "static/js/2.9449e715.chunk.js",
    "static/css/main.0836108c.chunk.css",
    "static/js/main.0f7f6598.chunk.js"
  ]
}